<?xml version="1.0" standalone="no"?>
<!DOCTYPE svg PUBLIC "-//W3C//DTD SVG 1.1//EN" "http://www.w3.org/Graphics/SVG/1.1/DTD/svg11.dtd" >
<svg xmlns="http://www.w3.org/2000/svg">
<metadata>
This is a custom SVG font generated by IcoMoon.
<iconset grid="16"></iconset>
</metadata>
<defs>
<font id="icomoon" horiz-adv-x="512" >
<font-face units-per-em="512" ascent="480" descent="-32" />
<missing-glyph horiz-adv-x="512" />
<glyph class="hidden" unicode="&#xf000;" d="M0,480L 512 -32L0 -32 z" horiz-adv-x="0" />
<glyph unicode="&#xe001;" d="M 256,480C 114.615,480,0,365.385,0,224s 114.615-256, 256-256s 256,114.615, 256,256S 397.385,480, 256,480z M 256,32
		c-106.039,0-192,85.961-192,192c0,106.039, 85.961,192, 192,192c 106.039,0, 192-85.961, 192-192C 448,117.961, 362.039,32, 256,32zM 160,224A96,96 12780 1 1 352,224A96,96 12780 1 1 160,224z"  />
<glyph unicode="&#xe002;" d="M 256,480C 114.615,480,0,365.385,0,224s 114.615-256, 256-256s 256,114.615, 256,256S 397.385,480, 256,480z M 256,32
	c-106.039,0-192,85.961-192,192c0,106.039, 85.961,192, 192,192c 106.039,0, 192-85.961, 192-192C 448,117.961, 362.039,32, 256,32z"  />
<glyph unicode="&#xe003;" d="M 192,416A64,64 12780 1 1 320,416A64,64 12780 1 1 192,416zM 327.765,359.765A64,64 12780 1 1 455.765,359.765A64,64 12780 1 1 327.765,359.765zM 416,224A32,32 12780 1 1 480,224A32,32 12780 1 1 416,224zM 359.765,88.235A32,32 12780 1 1 423.765,88.23500000000001A32,32 12780 1 1 359.765,88.23500000000001zM 224.001,32A32,32 12780 1 1 288.001,32A32,32 12780 1 1 224.001,32zM 88.236,88.235A32,32 12780 1 1 152.236,88.23500000000001A32,32 12780 1 1 88.236,88.23500000000001zM 72.236,359.765A48,48 12780 1 1 168.236,359.765A48,48 12780 1 1 72.236,359.765zM 28,224A36,36 12780 1 1 100,224A36,36 12780 1 1 28,224z"  />
<glyph unicode="&#xe004;" d="M 512,224c-0.639,33.431-7.892,66.758-21.288,97.231c-13.352,30.5-32.731,58.129-56.521,80.96
	c-23.776,22.848-51.972,40.91-82.492,52.826C 321.197,466.979, 288.401,472.693, 256,472c-32.405-0.641-64.666-7.687-94.167-20.678
	c-29.524-12.948-56.271-31.735-78.367-54.788c-22.112-23.041-39.58-50.354-51.093-79.899C 20.816,287.104, 15.309,255.375, 16,224
	c 0.643-31.38, 7.482-62.574, 20.067-91.103c 12.544-28.55, 30.738-54.414, 53.055-75.774c 22.305-21.377, 48.736-38.252, 77.307-49.36
	C 194.988-3.389, 225.652-8.688, 256-8c 30.354,0.645, 60.481,7.277, 88.038,19.457c 27.575,12.141, 52.558,29.74, 73.183,51.322
	c 20.641,21.57, 36.922,47.118, 47.627,74.715c 6.517,16.729, 10.94,34.2, 13.271,51.899c 0.623-0.036, 1.249-0.060, 1.881-0.060
	c 17.673,0, 32,14.326, 32,32c0,0.898-0.047,1.786-0.119,2.666L 512,223.999 z M 461.153,139.026c-11.736-26.601-28.742-50.7-49.589-70.59
	c-20.835-19.905-45.5-35.593-72.122-45.895C 312.828,12.202, 284.297,7.315, 256,8c-28.302,0.649-56.298,6.868-81.91,18.237
	c-25.625,11.333-48.842,27.745-67.997,47.856c-19.169,20.099-34.264,43.882-44.161,69.529C 51.997,169.264, 47.318,196.729, 48,224
	c 0.651,27.276, 6.664,54.206, 17.627,78.845c 10.929,24.65, 26.749,46.985, 46.123,65.405c 19.365,18.434, 42.265,32.935, 66.937,42.428
	C 203.356,420.208, 229.755,424.681, 256,424c 26.25-0.653, 52.114-6.459, 75.781-17.017c 23.676-10.525, 45.128-25.751, 62.812-44.391
	c 17.698-18.629, 31.605-40.647, 40.695-64.344C 444.412,274.552, 448.679,249.219, 448,224l 0.119,0 c-0.072-0.88-0.119-1.768-0.119-2.666
	c0-16.506, 12.496-30.087, 28.543-31.812C 473.431,172.111, 468.278,155.113, 461.153,139.026z"  />
<glyph unicode="&#xe005;" d="M 256,480 C 116.626,480 3.271,368.619 0.076,230.013 C 3.036,350.945 94.992,448 208,448 C 322.875,448 416,347.712 416,224 C 416,197.49 437.49,176 464,176 C 490.51,176 512,197.49 512,224 C 512,365.385 397.385,480 256,480 ZM 256-32 C 395.374-32 508.729,79.381 511.924,217.987 C 508.964,97.055 417.008,0 304,0 C 189.125,0 96,100.288 96,224 C 96,250.51 74.51,272 48,272 C 21.49,272 0,250.51 0,224 C 0,82.615 114.615-32 256-32 Z"  />
<glyph unicode="&#xe006;" d="M 64,32 L 512,32 L 512-32 L 0-32 L 0,480 L 64,480 ZM 144,64 C 117.49,64 96,85.49 96,112 C 96,138.51 117.49,160 144,160 C 145.414,160 146.811,159.926 148.194,159.807 L 199.79,245.8 C 194.87,253.335 192,262.331 192,272.001 C 192,298.511 213.49,320.001 240,320.001 C 266.51,320.001 288,298.511 288,272.001 C 288,262.33 285.13,253.335 280.21,245.8 L 331.806,159.807 C 333.189,159.926 334.586,160 336,160 C 337.068,160 338.124,159.953 339.175,159.885 L 424.353,308.946 C 419.085,316.65 416,325.964 416,336.001 C 416,362.511 437.49,384.001 464,384.001 C 490.51,384.001 512,362.511 512,336.001 C 512,309.491 490.51,288.001 464,288.001 C 462.93,288.001 461.876,288.048 460.825,288.117 L 375.647,139.055 C 380.915,131.352 384,122.037 384,112 C 384,85.49 362.51,64 336,64 C 309.49,64 288,85.49 288,112 C 288,121.67 290.87,130.666 295.789,138.201 L 244.194,224.193 C 242.811,224.074 241.414,224 240,224 C 238.586,224 237.189,224.073 235.806,224.193 L 184.21,138.2 C 189.13,130.666 192,121.67 192,112 C 192,85.49 170.51,64 144,64 Z"  />
<glyph unicode="&#xe007;" d="M0,64L 512,64L 512,0L0,0zM 64,192L 128,192L 128,96L 64,96zM 160,320L 224,320L 224,96L 160,96zM 256,224L 320,224L 320,96L 256,96zM 352,416L 416,416L 416,96L 352,96z"  />
<glyph unicode="&#xe008;" d="M 352,480c-88.365,0-160-71.634-160-160c0-10.013, 0.929-19.808, 2.688-29.312L0,96l0-96 c0-17.673, 14.327-32, 32-32
	l 32,0 l0,32 l 64,0 l0,64 l 64,0 l0,64 l 64,0 l 41.521,41.521C 314.526,163.363, 332.869,160, 352,160c 88.365,0, 160,71.634, 160,160S 440.365,480, 352,480z
	 M 399.937,319.937c-26.51,0-48,21.49-48,48s 21.49,48, 48,48s 48-21.49, 48-48S 426.447,319.937, 399.937,319.937z"  />
<glyph unicode="&#xe009;" d="M 451.648,151.509l-126.123,210.219C 308.971,389.312, 283.648,405.099, 256,405.099s-52.971-15.787-69.525-43.328l-126.123-210.261
	c-16.768-27.925-18.603-57.707-5.013-81.707C 68.907,45.781, 95.403,32, 128,32l 256,0 c 32.597,0, 59.093,13.781, 72.661,37.781
	C 470.251,93.781, 468.416,123.563, 451.648,151.509z M 256,105.621c-18.219,0-33.067,14.827-33.067,33.045c0,18.24, 14.827,33.088, 33.067,33.088
	s 33.067-14.848, 33.067-33.088C 289.067,120.448, 274.219,105.621, 256,105.621z M 290.837,264c-0.235-0.661-29.888-73.984-29.888-73.984
	c-0.811-2.005-2.773-3.328-4.928-3.328s-4.117,1.323-4.928,3.328l-29.675,73.344C 219.499,268.331, 218.667,272.811, 218.667,277.333
	c0,20.587, 16.747,37.333, 37.333,37.333s 37.333-16.747, 37.333-37.333C 293.333,272.811, 292.501,268.331, 290.837,264z"  />
<glyph unicode="&#x20;" horiz-adv-x="256" />
</font></defs></svg>